<?xml version="1.0" encoding="UTF-8"?>
<glyph name="amacron" format="2">
	<advance width="500"/>
	<unicode hex="0101"/>
	<outline>
		<component base="a"/>
		<component base="uni0304" xOffset="72"/>
	</outline>
</glyph>
