<?xml version="1.0" encoding="UTF-8"?>
<glyph name="Oslash" format="2">
	<advance width="627"/>
	<unicode hex="00D8"/>
	<guideline x="275" y="-50" angle="0"/>
	<outline>
		<contour>
			<point x="181" y="-50" type="line"/>
			<point x="275" y="-50" type="line"/>
			<point x="291" y="26" type="line"/>
			<point x="331" y="0" type="line"/>
			<point x="567" y="0" type="line"/>
			<point x="567" y="700" type="line"/>
			<point x="471" y="700" type="line"/>
			<point x="431" y="674" type="line"/>
			<point x="446" y="750" type="line"/>
			<point x="352" y="750" type="line"/>
			<point x="336" y="674" type="line"/>
			<point x="296" y="700" type="line"/>
			<point x="60" y="700" type="line"/>
			<point x="60" y="0" type="line"/>
			<point x="156" y="0" type="line"/>
			<point x="196" y="26" type="line"/>
		</contour>
		<contour>
			<point x="179" y="93" type="line"/>
			<point x="190" y="334" type="line"/>
			<point x="190" y="366" type="line"/>
			<point x="179" y="607" type="line"/>
			<point x="221" y="581" type="line"/>
			<point x="279" y="581" type="line"/>
			<point x="319" y="607" type="line"/>
			<point x="219" y="119" type="line"/>
		</contour>
		<contour>
			<point x="308" y="93" type="line"/>
			<point x="408" y="581" type="line"/>
			<point x="448" y="607" type="line"/>
			<point x="437" y="366" type="line"/>
			<point x="437" y="334" type="line"/>
			<point x="448" y="93" type="line"/>
			<point x="406" y="119" type="line"/>
			<point x="348" y="119" type="line"/>
		</contour>
	</outline>
	<lib>
		<dict>
			<key>com.schriftgestaltung.Glyphs.leftMetricsKey</key>
			<string>O</string>
			<key>com.schriftgestaltung.Glyphs.rightMetricsKey</key>
			<string>O</string>
		</dict>
	</lib>
</glyph>
