<?xml version="1.0" encoding="UTF-8"?>
<glyph name="U" format="2">
	<advance width="544"/>
	<unicode hex="0055"/>
	<anchor x="272" y="0" name="bottom"/>
	<anchor x="407" y="0" name="ogonek"/>
	<anchor x="272" y="700" name="top"/>
	<anchor x="524" y="700" name="topright"/>
	<outline>
		<contour>
			<point x="60" y="0" type="line"/>
			<point x="484" y="0" type="line"/>
			<point x="484" y="700" type="line"/>
			<point x="348" y="700" type="line"/>
			<point x="348" y="324" type="line"/>
			<point x="358" y="104" type="line"/>
			<point x="318" y="130" type="line"/>
			<point x="226" y="130" type="line"/>
			<point x="186" y="104" type="line"/>
			<point x="196" y="324" type="line"/>
			<point x="196" y="700" type="line"/>
			<point x="60" y="700" type="line"/>
		</contour>
	</outline>
	<lib>
		<dict>
			<key>com.schriftgestaltung.Glyphs.leftMetricsKey</key>
			<string>H</string>
			<key>com.schriftgestaltung.Glyphs.rightMetricsKey</key>
			<string>H</string>
		</dict>
	</lib>
</glyph>
