<?xml version="1.0" encoding="UTF-8"?>
<glyph name="uni0237" format="2">
	<advance width="260"/>
	<unicode hex="0237"/>
	<anchor x="135" y="-200" name="bottom"/>
	<anchor x="135" y="520" name="top"/>
	<outline>
		<contour>
			<point x="-34" y="-200" type="line"/>
			<point x="200" y="-200" type="line"/>
			<point x="200" y="520" type="line"/>
			<point x="70" y="520" type="line"/>
			<point x="70" y="134" type="line"/>
			<point x="78" y="-86" type="line"/>
			<point x="-34" y="-60" type="line"/>
		</contour>
	</outline>
</glyph>
