<?xml version="1.0" encoding="UTF-8"?>
<glyph name="ydieresis" format="2">
	<advance width="500"/>
	<unicode hex="00FF"/>
	<outline>
		<component base="y"/>
		<component base="uni0308" xOffset="43"/>
	</outline>
</glyph>
